{
  "basics": {
    "name": "Dušan Rajković",
    "label": "Strukovni inženjer elektrotehnike i računarstva",
    "picture": "",
    "email": "dusan1102@gmail.com",
    "phone": "061 146 17 69",
    "website": "https://dusanrajkovic.co.nf",
    "summary": "Dušan Rajković rođen je 11.02.1994. u Nišu, Republika Srbija. Osnovnu školu završio je u Čokotu, OŠ ,,Desanka Maksimović“. Nosilac je Vukove diplome za postignut uspeh u toku školovanja, kao i većeg broja diploma za učestvovanje na brojnim takmičenjima. Srednju školu završio je u Nišu, ETŠ ,,Nikola Tesla“. Visoku Tehničku školu u Nišu, smer Savremene računarske tehnologije upiso je 2013. godine a zavrsio 2016. godine.",
    "location": {
      "address": "ul. Sime Dinića br. 147",
      "postalCode": "18250",
      "city": "Niš",
      "countryCode": "RS",
      "region": "Serbia"
    },
    "profiles": [
      {
        "network": "Facebook",
        "username": "Dusan Rajković",
        "url": "https://www.facebook.com/rajkovic1102"
      },
      {
        "network": "Instagram",
        "username": "ducikus",
        "url": "https://www.instagram.com/ducikus/"
      }
    ]
  },
  "work": [
    {
      "company": "Bez radnog iskustva",
      "position": "",
      "website": "",
      "startDate": "",
      "endDate": "",
      "summary": "",
      "highlights": []
    }
  ],
  "volunteer": [
    {
      "organization": "IRVAS International",
      "position": "Web developer",
      "website": "http://www.irvas.rs/english/",
      "startDate": "01,03,2016,",
      "endDate": "15,05,2016,",
      "summary": "Upoznavanje i sticanje novih znanja u okviru web-a. (HTML, CSS, JavaScript, Odoo 9...) ",
      "highlights": []
    }
  ],
  "education": [
    {
      "institution": "Visoko tehnička škola Niš",
      "area": "Savremene računarske tehnologije",
      "studyType": "Strukovne",
      "startDate": "01.10.2013.",
      "endDate": "27,12,2016.",
      "gpa": "",
      "courses": []
    }
  ],
  "awards": [],
  "publications": [],
  "skills": [
    {
      "name": "Front-end developer",
      "level": "Junior",
      "keywords": [
        "HTML",
        "CSS",
        "Javascript",
        "jQuery",
        "Bootstrap",
        "WordPress"
      ]
    },
    {
      "name": "",
      "level": "",
      "keywords": []
    }
  ],
  "languages": [
    {
      "language": "Srpski",
      "fluency": "Maternji jezik"
    },
    {
      "language": "Engleski",
      "fluency": "Vrlo dobar"
    }
  ],
  "interests": [
    {
      "name": "Sport",
      "keywords": [
        "Fudbal",
        "Stoni tenis",
        "Bilijar"
      ]
    },
    {
      "name": "Gaming",
      "keywords": [
        "World of WarCraft",
        "Heroes of the Storm",
        "Heartstone"
      ]
    },
    {
      "name": "Web development",
      "keywords": [
        "WordPress",
        "HTML/CSS/JavaScript"
      ]
    }
  ],
  "references": []
}